<?xml version="1.0" encoding="utf-8"?>
<!-- Generator: Adobe Illustrator 18.1.1, SVG Export Plug-In . SVG Version: 6.00 Build 0)  -->
<svg version="1.1" id="Layer_1" xmlns="http://www.w3.org/2000/svg" xmlns:xlink="http://www.w3.org/1999/xlink" x="0px" y="0px"
	 width="50px" height="50px" viewBox="355.3 1272.3 50 50" enable-background="new 355.3 1272.3 50 50" xml:space="preserve">
<path fill="#919191" d="M398.6,1305.6h-7c-0.8,0-1.4,0.5-1.4,1.4s0.5,1.4,1.4,1.4h5.7v11.7h-33.9v-11.7h6.2c0.8,0,1.4-0.5,1.4-1.4
	s-0.5-1.4-1.4-1.4H362c-0.8,0-1.4,0.5-1.4,1.4v14.4c0,0.8,0.5,1.4,1.4,1.4h36.6c0.8,0,1.4-0.5,1.4-1.4V1307
	C399.9,1306.2,399.4,1305.6,398.6,1305.6z"/>
<path fill="#919191" d="M379.6,1313.2c0,0,0.3,0.3,0.5,0.3c0.3,0,0.3,0,0.5,0s0.3,0,0.5,0c0.3,0,0.3-0.3,0.5-0.3l10.3-10.3
	c0.5-0.5,0.5-1.6,0-2.2c-0.5-0.5-1.4-0.5-1.9,0l-8.1,8.1v-35.5c0-0.8-0.5-1.4-1.4-1.4s-1.4,0.5-1.4,1.4v35.8l-8.1-8.1
	c-0.5-0.5-1.4-0.5-1.9,0c-0.5,0.5-0.5,1.4,0,1.9L379.6,1313.2z"/>
</svg>
