<?xml version="1.0" encoding="utf-8"?>
<!-- Generator: Adobe Illustrator 18.1.1, SVG Export Plug-In . SVG Version: 6.00 Build 0)  -->
<svg version="1.1" id="Layer_1" xmlns="http://www.w3.org/2000/svg" xmlns:xlink="http://www.w3.org/1999/xlink" x="0px" y="0px"
	 viewBox="30 30 40 40" enable-background="new 30 30 40 40" xml:space="preserve">
<g>
	<path fill="#515151" d="M35.4,58.6l-3.2-3.2c-3-3-3-7.8,0-10.8l3.2-3.2l1.2,1.2l-3.2,3.2c-2.4,2.4-2.4,6,0,8.4l3.2,3.2L35.4,58.6z"
		/>
	<path fill="#515151" d="M64.6,58.6l-1.2-1.2l3.2-3.2c1.2-1.2,1.8-2.6,1.8-4.2c0-1.6-0.6-3-1.8-4.2l-3.2-3.2l1.2-1.2l3.2,3.2
		C69.2,46,70,48,70,50s-0.8,4-2.2,5.4L64.6,58.6z"/>
	<path fill="#515151" d="M50,70c-2,0-4-0.8-5.4-2.2l-3.2-3.2l1.2-1.2l3.2,3.2c2.2,2.2,6.2,2.2,8.4,0l3.2-3.2l1.2,1.2l-3.2,3.2
		C54,69.2,52,70,50,70z"/>
	<path fill="#515151" d="M42.6,36.6l-1.2-1.2l3.2-3.2C46,30.8,48,30,50,30s4,0.8,5.4,2.2l3.2,3.2l-1.2,1.2l-3.2-3.2
		c-2.2-2.2-6.2-2.2-8.4,0L42.6,36.6z"/>
	<g>
		<path fill="#AAAAAA" d="M50,36c-0.4,0-0.8,0.2-1.2,0.4L36.4,48.8c-0.6,0.6-0.6,1.8,0,2.4l12.4,12.4C49.2,64,49.6,64,50,64
			s0.8-0.2,1.2-0.4l12.4-12.4c0.6-0.6,0.6-1.8,0-2.4L51.2,36.4C50.8,36.2,50.4,36,50,36L50,36z"/>
	</g>
</g>
</svg>
