<?xml version="1.0" encoding="utf-8"?>
<!-- Generator: Adobe Illustrator 18.1.1, SVG Export Plug-In . SVG Version: 6.00 Build 0)  -->
<svg version="1.1" id="Layer_1" xmlns="http://www.w3.org/2000/svg" xmlns:xlink="http://www.w3.org/1999/xlink" x="0px" y="0px"
	 width="80.5px" height="31px" viewBox="285.3 425.2 80.5 31" enable-background="new 285.3 425.2 80.5 31" xml:space="preserve">
<path fill="#CECCCC" d="M365.4,452.2c0,2-1.5,3.5-3.5,3.5h-73c-2,0-3.5-1.5-3.5-3.5v-23c0-2,1.5-3.5,3.5-3.5h73c2,0,3.5,1.5,3.5,3.5
	L365.4,452.2L365.4,452.2z"/>
<path fill="none" stroke="#919191" stroke-miterlimit="10" d="M365.5,452.2c0,2-1.5,3.5-3.5,3.5h-73c-2,0-3.5-1.5-3.5-3.5v-23.1
	c0-2,1.5-3.5,3.5-3.5h73c2,0,3.5,1.5,3.5,3.5V452.2z"/>
<g display="none" enable-background="new    ">
	<path display="inline" fill="#535353" d="M317.3,442.3v-4.9c0-1.2,0.3-2.1,1-2.7s1.5-0.8,2.5-0.8c1.1,0,1.9,0.3,2.5,0.8
		s1,1.5,1,2.7v4.9c0,1.2-0.3,2.1-1,2.7c-0.6,0.6-1.5,0.8-2.5,0.8c-1.1,0-1.9-0.3-2.5-0.8C317.6,444.4,317.3,443.6,317.3,442.3z
		 M318.6,442.3c0,1.5,0.7,2.3,2.1,2.3c0.7,0,1.2-0.2,1.6-0.6c0.4-0.4,0.6-1,0.6-1.7v-4.9c0-0.8-0.2-1.3-0.6-1.7
		c-0.4-0.4-0.9-0.6-1.6-0.6c-1.4,0-2.1,0.8-2.1,2.3C318.6,437.5,318.6,442.3,318.6,442.3z"/>
	<path display="inline" fill="#535353" d="M326.5,445.3v-10.9c0-0.3,0.2-0.4,0.7-0.4c0.2,0,0.4,0.1,0.6,0.2c0.2,0.1,0.3,0.3,0.5,0.7
		l4.1,7.8v-8.3c0-0.2,0.1-0.3,0.2-0.3c0.2-0.1,0.3-0.1,0.5-0.1c0.2,0,0.3,0.1,0.5,0.1c0.1,0.1,0.2,0.2,0.2,0.3v10.9
		c0,0.2-0.1,0.3-0.2,0.3c-0.1,0.1-0.3,0.1-0.5,0.1c-0.3,0-0.6-0.2-0.8-0.6l-4.2-8.1v8.2c0,0.2-0.1,0.3-0.2,0.3
		c-0.1,0.1-0.3,0.1-0.5,0.1c-0.2,0-0.3-0.1-0.5-0.1C326.5,445.6,326.5,445.5,326.5,445.3z"/>
</g>
<g enable-background="new    ">
	<path fill="#535353" d="M314.4,442.4v-5.2c0-1.3,0.4-2.3,1-2.9c0.7-0.6,1.5-0.9,2.7-0.9s2,0.3,2.7,0.9c0.7,0.6,1,1.5,1,2.9v5.2
		c0,1.3-0.4,2.3-1,2.9c-0.7,0.6-1.5,0.9-2.7,0.9s-2-0.3-2.7-0.9C314.7,444.7,314.4,443.8,314.4,442.4z M315.8,442.4
		c0,1.6,0.8,2.4,2.3,2.4c0.7,0,1.3-0.2,1.7-0.6c0.4-0.4,0.6-1,0.6-1.8v-5.2c0-0.8-0.2-1.4-0.6-1.8c-0.4-0.4-0.9-0.6-1.7-0.6
		c-1.5,0-2.3,0.8-2.3,2.4V442.4z"/>
	<path fill="#535353" d="M324,445.6v-11.5c0-0.2,0.1-0.3,0.2-0.4c0.1-0.1,0.3-0.1,0.5-0.1h6c0.2,0,0.3,0.1,0.4,0.2
		c0.1,0.1,0.1,0.3,0.1,0.4c0,0.2-0.1,0.4-0.1,0.5c-0.1,0.1-0.2,0.2-0.4,0.2h-5.2v4.3h2.7c0.2,0,0.3,0.1,0.4,0.2s0.1,0.2,0.1,0.4
		c0,0.1-0.1,0.3-0.1,0.4c-0.1,0.1-0.2,0.2-0.4,0.2h-2.7v5.1c0,0.2-0.1,0.3-0.2,0.4c-0.1,0.1-0.3,0.1-0.5,0.1c-0.2,0-0.4-0.1-0.5-0.1
		C324.1,445.9,324,445.8,324,445.6z"/>
	<path fill="#535353" d="M332.5,445.6v-11.5c0-0.2,0.1-0.3,0.2-0.4s0.3-0.1,0.5-0.1h6c0.2,0,0.3,0.1,0.4,0.2
		c0.1,0.1,0.1,0.3,0.1,0.4c0,0.2-0.1,0.4-0.1,0.5c-0.1,0.1-0.2,0.2-0.4,0.2H334v4.3h2.7c0.2,0,0.3,0.1,0.4,0.2
		c0.1,0.1,0.1,0.2,0.1,0.4c0,0.1-0.1,0.3-0.1,0.4c-0.1,0.1-0.2,0.2-0.4,0.2H334v5.1c0,0.2-0.1,0.3-0.2,0.4c-0.1,0.1-0.3,0.1-0.5,0.1
		s-0.4-0.1-0.5-0.1C332.6,445.9,332.5,445.8,332.5,445.6z"/>
</g>
</svg>
