<?xml version="1.0" encoding="utf-8"?>
<!-- Generator: Adobe Illustrator 18.1.1, SVG Export Plug-In . SVG Version: 6.00 Build 0)  -->
<svg version="1.1" id="Layer_1" xmlns="http://www.w3.org/2000/svg" xmlns:xlink="http://www.w3.org/1999/xlink" x="0px" y="0px"
	 viewBox="0 0 142 27" enable-background="new 0 0 142 27" xml:space="preserve">
<g>
	<g>
		<path fill="#CECCCC" d="M142,24c0,1.7-1.3,3-3,3H4c-1.7,0-3-1.3-3-3V4c0-1.7,1.3-3,3-3h135c1.7,0,3,1.3,3,3V24z"/>
	</g>
	<path fill="#919191" d="M138.5,27H3.5C1.6,27,0,25.4,0,23.5v-20C0,1.6,1.6,0,3.5,0h135c1.9,0,3.5,1.6,3.5,3.5v20
		C142,25.4,140.4,27,138.5,27z M3.5,1C2.1,1,1,2.1,1,3.5v20C1,24.9,2.1,26,3.5,26h135c1.4,0,2.5-1.1,2.5-2.5v-20
		c0-1.4-1.1-2.5-2.5-2.5H3.5z"/>
</g>
<g>
	<g>
		<path fill="#535353" d="M56.2,17.6V8.1c0-0.1,0-0.2,0.1-0.3c0.1-0.1,0.2-0.1,0.3-0.1h2.6c0.9,0,1.7,0.2,2.3,0.7s0.9,1.2,0.9,2.1
			c0,1.5-0.7,2.4-2.1,2.7l2.1,3.9c0,0.1,0.1,0.1,0.1,0.2c0,0.1-0.1,0.3-0.2,0.4S61.8,18,61.6,18c-0.2,0-0.4-0.2-0.5-0.5L59,13.4
			h-1.6v4.1c0,0.1-0.1,0.2-0.2,0.3C57.1,17.9,57,18,56.8,18c-0.2,0-0.3,0-0.4-0.1C56.3,17.8,56.2,17.7,56.2,17.6z M57.4,12.5h1.8
			c1.3,0,1.9-0.6,1.9-1.8c0-1.2-0.6-1.8-1.9-1.8h-1.8V12.5z"/>
		<path fill="#535353" d="M63.1,17.5c0,0,0-0.1,0-0.1l2.9-9.3c0.1-0.3,0.3-0.4,0.7-0.4s0.6,0.1,0.7,0.4l2.9,9.3c0,0,0,0,0,0.1
			c0,0,0,0,0,0c0,0.1-0.1,0.2-0.2,0.3S69.7,18,69.5,18c-0.2,0-0.4-0.1-0.4-0.3l-0.6-2.1h-3.7l-0.6,2.1C64.1,17.9,64,18,63.8,18
			c-0.2,0-0.3,0-0.5-0.1C63.1,17.7,63.1,17.6,63.1,17.5z M65.1,14.7h3.1l-1.6-5.3L65.1,14.7z"/>
		<path fill="#535353" d="M71.5,17.6V8.1c0-0.1,0.1-0.2,0.2-0.3c0.1-0.1,0.3-0.1,0.4-0.1c0.2,0,0.3,0,0.4,0.1
			c0.1,0.1,0.2,0.2,0.2,0.3v9.4c0,0.1-0.1,0.2-0.2,0.3c-0.1,0.1-0.3,0.1-0.4,0.1c-0.2,0-0.3,0-0.4-0.1
			C71.6,17.8,71.5,17.7,71.5,17.6z"/>
		<path fill="#535353" d="M74.1,16.5c0-0.1,0.1-0.3,0.2-0.4s0.2-0.2,0.4-0.2c0.1,0,0.2,0.1,0.3,0.2c0.1,0.1,0.3,0.2,0.4,0.4
			c0.1,0.1,0.4,0.3,0.7,0.4c0.3,0.1,0.6,0.2,1,0.2c0.6,0,1.1-0.1,1.4-0.4c0.3-0.3,0.5-0.7,0.5-1.3c0-0.5-0.2-0.9-0.5-1.3
			c-0.3-0.3-0.7-0.6-1.1-0.7S76.5,13,76,12.8c-0.5-0.2-0.8-0.5-1.2-0.9s-0.5-0.9-0.5-1.5c0-0.5,0.1-0.9,0.3-1.3
			c0.2-0.4,0.4-0.6,0.8-0.8c0.3-0.2,0.6-0.3,1-0.4s0.7-0.1,1.1-0.1c0.6,0,1.1,0.1,1.7,0.3c0.5,0.2,0.8,0.4,0.8,0.7
			c0,0.1,0,0.3-0.1,0.4c-0.1,0.1-0.2,0.2-0.4,0.2c0,0-0.3-0.1-0.6-0.3c-0.4-0.2-0.8-0.3-1.3-0.3c-0.6,0-1,0.1-1.4,0.4
			c-0.4,0.2-0.5,0.6-0.5,1.1c0,0.4,0.2,0.8,0.5,1c0.3,0.3,0.7,0.5,1.2,0.6c0.5,0.2,0.9,0.3,1.4,0.5c0.4,0.2,0.8,0.5,1.1,1
			c0.3,0.5,0.5,1,0.5,1.7c0,1-0.3,1.7-0.8,2.2c-0.6,0.5-1.3,0.7-2.2,0.7c-0.8,0-1.5-0.2-2.1-0.5C74.4,17.2,74.1,16.9,74.1,16.5z"/>
		<path fill="#535353" d="M81.7,17.6V8.2c0-0.1,0.1-0.2,0.2-0.3c0.1-0.1,0.2-0.1,0.4-0.1h5c0.1,0,0.2,0.1,0.3,0.2
			c0.1,0.1,0.1,0.2,0.1,0.4c0,0.1,0,0.3-0.1,0.4s-0.2,0.2-0.3,0.2h-4.3v3.6h2.2c0.1,0,0.2,0,0.3,0.1c0.1,0.1,0.1,0.2,0.1,0.4
			c0,0.1,0,0.2-0.1,0.3c-0.1,0.1-0.2,0.1-0.3,0.1h-2.2v3.6h4.3c0.1,0,0.2,0.1,0.3,0.2c0.1,0.1,0.1,0.2,0.1,0.4c0,0.1,0,0.3-0.1,0.4
			c-0.1,0.1-0.2,0.2-0.3,0.2h-5c-0.1,0-0.3,0-0.4-0.1C81.8,17.8,81.7,17.7,81.7,17.6z"/>
	</g>
</g>
</svg>
