<?xml version="1.0" encoding="utf-8"?>
<!-- Generator: Adobe Illustrator 18.1.1, SVG Export Plug-In . SVG Version: 6.00 Build 0)  -->
<svg version="1.1" id="Layer_1" xmlns="http://www.w3.org/2000/svg" xmlns:xlink="http://www.w3.org/1999/xlink" x="0px" y="0px"
	 viewBox="0 0 792 612" enable-background="new 0 0 792 612" xml:space="preserve">
<g>
	<path fill="#90908F" d="M656.9,229.1L486.8,58.9c-6.5-6.5-16.4-6.5-22.9,0L293.6,229v157.2l170.2,170.2c3.3,3.3,6.5,3.3,13.1,3.3
		c6.5,0,9.8,0,13.1-3.3l166.9-166.9V229.1z M473.7,91.6l144,144l-144,144l-144-144L473.7,91.6z M476.7,520.4L323.1,369.8v-91.6
		l140.7,140.7c6.5,6.5,16.4,6.5,22.9,0l140.7-140.7v91.6L476.7,520.4z"/>
	<path fill="#90908F" d="M761.7,0H607.8c-9.8,0-16.4,6.5-16.4,16.4s6.5,16.4,16.4,16.4h137.5v546.5H607.8c-9.8,0-16.4,6.5-16.4,16.4
		c0,9.8,6.5,16.4,16.4,16.4h153.8c9.8,0,16.4-6.5,16.4-16.4V16.4C778,6.5,771.5,0,761.7,0z"/>
	<path fill="#90908F" d="M339.5,579.3H198.8V32.7h140.7c9.8,0,16.4-6.5,16.4-16.4S349.3,0,339.5,0H182.4C172.6,0,166,6.5,166,16.4
		v579.3c0,9.8,6.5,16.4,16.4,16.4h157.1c9.8,0,16.4-6.5,16.4-16.4C355.8,585.8,349.3,579.3,339.5,579.3z"/>
</g>
</svg>
